Name,Equipment,Sex,BirthDate,BodyweightKg,Age,Division,WeightClassKg,Squat1Kg,Squat2Kg,Squat3Kg,Best3SquatKg,Squat4Kg,Bench1Kg,Bench2Kg,Bench3Kg,Best3BenchKg,Bench4Kg,Deadlift1Kg,Deadlift2Kg,Deadlift3Kg,Best3DeadliftKg,Deadlift4Kg,TotalKg,Event,Place
Maria Agustina Vago,Wraps,F,1992-09-14,47.6,30,Open,48,90,95,-100,95,,40,42.5,45,45,,105,115,122.5,122.5,,262.5,SBD,1
Paula Hernandez,Raw,F,2005-06-24,53.8,17,Tn 16-17,56,67.5,72.5,-77.5,72.5,,37.5,42.5,45,45,,95,100,107.5,107.5,,225,SBD,1
Johana Diaz,Wraps,F,1988-03-13,63.6,35,Open,67.5,-110,110,-115,110,,50,55,-57.5,55,,120,130,140,140,,305,SBD,3
Carina Jara,Wraps,F,1992-04-27,61.6,30,Open,67.5,100,-110,110,110,,50,-57.5,57.5,57.5,,120,130,140,140,,307.5,SBD,2
Romina Coñuel,Wraps,F,1995-05-28,63.4,27,Open,67.5,125,-135,-137.5,125,,52.5,57.5,-60,57.5,,125,135,-145,135,,317.5,SBD,1
Millie Beynon,Wraps,F,2003-04-23,67,19,Tn 18-19,67.5,120,,,120,,65,70,72.5,72.5,,140,150,160,160,,352.5,SBD,1
Noelia Sánchez Jenkins,Raw,F,1993-01-10,68.9,30,Open,75,82.5,90,-97.5,90,,32.5,37.5,-42.5,37.5,,115,120,-127.5,120,,247.5,SBD,1
Florencia Branca,Wraps,F,1999-02-08,80.6,24,Open,82.5,150,160,-170,160,,60,67.5,72.5,72.5,,150,160,170,170,,402.5,SBD,1
Gabriel Alvarez,Raw,M,2000-04-30,65.9,22,Jun,67.5,100,105,112.5,112.5,,60,70,-75,70,,130,145,-160,145,,327.5,SBD,1
Leonardo Bargas,Raw,M,1982-06-05,90.8,40,M40-44,100,-100,100,-150,100,,-80,80,-110,80,,150,175,200,200,,380,SBD,1
Joaquin López Boyraz,Wraps,M,2004-02-24,85.4,19,Tn 18-19,90,140,150,160,160,,100,-105,-105,100,,180,-190,-200,180,,440,SBD,1
Juan Marcelo Diaz,Raw,M,1973-09-14,85.4,49,M45-49,90,-140,-140,-145,,,90,100,-115,100,,200,220,-240,220,,,SBD,DQ
Claudio Gomez,Raw,M,1967-05-18,82.5,55,M55-59,82.5,-130,135,-140,135,,90,95,-100,95,,180,190,195,195,,425,SBD,1
Baltazar Gonzalez,Raw,M,1992-02-27,78.1,31,Open,82.5,150,160,170,170,,107.5,115,120,120,,210,220,230,230,,520,SBD,1
Nahuel Muñoz,Raw,M,2002-08-30,73,20,Jun,75,125,130,135,135,,100,-110,-115,100,,170,180,190,190,,425,SBD,1
Jorge Utreras,Raw,M,2005-04-04,73.8,18,Tn 18-19,75,150,-160,-160,150,,95,100,-105,100,,150,170,-180,170,,420,SBD,1
Demilson Torres,Raw,M,2005-04-30,66.4,17,Tn 16-17,67.5,-110,110,120,120,,60,70,-75,70,,150,160,170,170,,360,SBD,1
Nicolas Mallo,Wraps,M,1972-11-27,93.3,50,M50-54,100,225,240,-250,240,,105,112.5,117.5,117.5,,225,240,-250,240,,597.5,SBD,1
Mario Castillo,Wraps,M,1984-04-08,70.5,39,Open,75,170,-180,-190,170,,110,117,-122.5,117,,195,205,-215,205,,492,SBD,1
Matias Ayum Garcia,Wraps,M,1995-05-16,73.3,27,Open,75,152.5,160,165,165,,80,85,90,90,,170,180,190,190,,445,SBD,2
Cristian Ayala,Wraps,M,1995-11-21,107,27,Open,110,240,260,275,275,,130,135,137.5,137.5,,270,280,285,285,,697.5,SBD,1
Martin Fraguas,Wraps,M,1981-09-15,107.7,41,M40-44,110,202.5,212.5,220,220,,105,115,122.5,122.5,,202.5,212.5,-217,212.5,,555,SBD,1
Diego Rival,Wraps,M,1985-12-30,107.9,37,Open,110,200,220,250,250,,100,110,-120,110,,240,250,,250,,610,SBD,2
Ernesto Flores,Wraps,M,1985-01-28,138,38,Open,140,-190,190,-205,190,,95,105,112.5,112.5,,205,215,227.5,227.5,,530,SBD,1
Victoria Jones #2,Wraps,M,1995-12-20,80.8,27,Open,82.5,-60,60,70,70,,35,37.5,40,40,,70,80,90,90,,200,SBD,1
